"id","login","name","password","groups_id/id"
"res_users_1","accountant","Accountant","acc","isf_cims_module.group_cims_account,account.group_account_user"
"res_users_2","hr","Human Resources","hr","isf_cims_module.group_cims_hr,base.group_hr_manager"
"res_users_3","pharm","Pharmacy","pharm","isf_cims_module.group_cims_pharmacy"
"res_users_4","logistic","Logistic","log","isf_cims_module.group_cims_logistic,base.group_hr_user,stock.group_stock_user"